sim/scanner_fsm_tb.vcd
$date
	Sun Sep 15 20:34:52 2024
$end
$version
	ModelSim Version 2021.4
$end
$timescale
	1ns
$end

$scope module scanner_fsm_tb $end
$var reg 1 ! clk $end
$var reg 1 " nrst $end
$var reg 4 # row_d [3:0] $end
$var reg 4 $ col_q_out [3:0] $end
$var reg 4 % col_q [3:0] $end
$var reg 4 & row_q [3:0] $end
$var reg 4 ' col_q_out_expected [3:0] $end
$var reg 4 ( col_q_expected [3:0] $end
$var reg 4 ) row_q_expected [3:0] $end
$var reg 32 * vectornum [31:0] $end
$var reg 32 + errors [31:0] $end

$scope module dut $end
$var wire 1 , clk $end
$var wire 1 - nrst $end
$var wire 1 . row_d [3] $end
$var wire 1 / row_d [2] $end
$var wire 1 0 row_d [1] $end
$var wire 1 1 row_d [0] $end
$var reg 4 2 col_q_out [3:0] $end
$var reg 4 3 col_q [3:0] $end
$var reg 4 4 row_q [3:0] $end
$var reg 4 5 current_state [3:0] $end
$var reg 4 6 next_state [3:0] $end
$var reg 21 7 counter [20:0] $end
$upscope $end
$upscope $end
$enddefinitions $end
#0
$dumpvars
1!
0"
bx #
b1 $
b0 %
bx &
bx '
bx (
bx )
b0 *
b0 +
b1 2
b0 3
bx 4
b0 5
b11 6
b0 7
1,
0-
x1
x0
x/
x.
$end
#1
b0 $
b0 #
01
00
0/
0.
b0 4
b0 &
#5
0!
0,
b1 *
#10
1!
1,
#11
bx &
#15
0!
0,
b10 *
#20
1!
1,
#25
0!
0,
b11 *
#27
1"
1-
#30
1!
1,
b1 7
#35
0!
0,
#40
1!
1,
b10 7
#45
0!
0,
#50
1!
1,
b11 7
#55
0!
0,
#60
1!
1,
b100 7
#65
0!
0,
#70
1!
1,
b101 7
#75
0!
0,
#80
1!
1,
b110 7
#85
0!
0,
#90
1!
1,
b111 7
#95
0!
0,
#100
1!
1,
b1000 7
#105
0!
0,
#110
1!
1,
b1001 7
#115
0!
0,
#120
1!
1,
b1010 7
#125
0!
0,
#130
1!
1,
b1011 7
#135
0!
0,
#140
1!
1,
b1100 7
#145
0!
0,
#150
1!
1,
b1101 7
#155
0!
0,
#160
1!
1,
b1110 7
#165
0!
0,
#170
1!
1,
b1111 7
#175
0!
0,
#180
1!
1,
b10000 7
#185
0!
0,
#190
1!
1,
b10001 7
#195
0!
0,
#200
1!
1,
b10010 7
#205
0!
0,
#210
1!
1,
b10011 7
#215
0!
0,
#220
1!
1,
b10100 7
#225
0!
0,
#230
1!
1,
b10101 7
#235
0!
0,
#240
1!
1,
b10110 7
#245
0!
0,
#250
1!
1,
b10111 7
#255
0!
0,
#260
1!
1,
b11000 7
#265
0!
0,
#270
1!
1,
b11001 7
#275
0!
0,
#280
1!
1,
b11010 7
#285
0!
0,
#290
1!
1,
b11011 7
#295
0!
0,
#300
1!
1,
b11100 7
#305
0!
0,
#310
1!
1,
b11101 7
#315
0!
0,
#320
1!
1,
b11110 7
#325
0!
0,
#330
1!
1,
b11111 7
#335
0!
0,
#340
1!
1,
b100000 7
#345
0!
0,
#350
1!
1,
b100001 7
#355
0!
0,
#360
1!
1,
b100010 7
#365
0!
0,
#370
1!
1,
b100011 7
#375
0!
0,
#380
1!
1,
b100100 7
#385
0!
0,
#390
1!
1,
b100101 7
#395
0!
0,
#400
1!
1,
b100110 7
#405
0!
0,
#410
1!
1,
b100111 7
#415
0!
0,
#420
1!
1,
b101000 7
#425
0!
0,
#430
1!
1,
b101001 7
#435
0!
0,
#440
1!
1,
b101010 7
#445
0!
0,
#450
1!
1,
b101011 7
#455
0!
0,
#460
1!
1,
b101100 7
#465
0!
0,
#470
1!
1,
b101101 7
#475
0!
0,
#480
1!
1,
b101110 7
#485
0!
0,
#490
1!
1,
b101111 7
#495
0!
0,
#500
1!
1,
b110000 7
#505
0!
0,
#510
1!
1,
b110001 7
#515
0!
0,
#520
1!
1,
b110010 7
#525
0!
0,
#530
1!
1,
b110011 7
#535
0!
0,
#540
1!
1,
b110100 7
#545
0!
0,
#550
1!
1,
b110101 7
#555
0!
0,
#560
1!
1,
b110110 7
#565
0!
0,
#570
1!
1,
b110111 7
#575
0!
0,
#580
1!
1,
b111000 7
#585
0!
0,
#590
1!
1,
b111001 7
#595
0!
0,
#600
1!
1,
b111010 7
#605
0!
0,
#610
1!
1,
b111011 7
#615
0!
0,
#620
1!
1,
b111100 7
#625
0!
0,
#630
1!
1,
b111101 7
#635
0!
0,
#640
1!
1,
b111110 7
#645
0!
0,
#650
1!
1,
b111111 7
#655
0!
0,
#660
1!
1,
b1000000 7
#665
0!
0,
#670
1!
1,
b1000001 7
#675
0!
0,
#680
1!
1,
b1000010 7
#685
0!
0,
#690
1!
1,
b1000011 7
#695
0!
0,
#700
1!
1,
b1000100 7
#705
0!
0,
#710
1!
1,
b1000101 7
#715
0!
0,
#720
1!
1,
b1000110 7
#725
0!
0,
#730
1!
1,
b1000111 7
#735
0!
0,
#740
1!
1,
b1001000 7
#745
0!
0,
#750
1!
1,
b1001001 7
#755
0!
0,
#760
1!
1,
b1001010 7
#765
0!
0,
#770
1!
1,
b1001011 7
#775
0!
0,
#780
1!
1,
b1001100 7
#785
0!
0,
#790
1!
1,
b1001101 7
#795
0!
0,
#800
1!
1,
b1001110 7
#805
0!
0,
#810
1!
1,
b1001111 7
#815
0!
0,
#820
1!
1,
b1010000 7
#825
0!
0,
#830
1!
1,
b1010001 7
#835
0!
0,
#840
1!
1,
b1010010 7
#845
0!
0,
#850
1!
1,
b1010011 7
#855
0!
0,
#860
1!
1,
b1010100 7
#865
0!
0,
#870
1!
1,
b1010101 7
#875
0!
0,
#880
1!
1,
b1010110 7
#885
0!
0,
#890
1!
1,
b1010111 7
#895
0!
0,
#900
1!
1,
b1011000 7
#905
0!
0,
#910
1!
1,
b1011001 7
#915
0!
0,
#920
1!
1,
b1011010 7
#925
0!
0,
#930
1!
1,
b1011011 7
#935
0!
0,
#940
1!
1,
b1011100 7
#945
0!
0,
#950
1!
1,
b1011101 7
#955
0!
0,
#960
1!
1,
b1011110 7
#965
0!
0,
#970
1!
1,
b1011111 7
#975
0!
0,
#980
1!
1,
b1100000 7
#985
0!
0,
#990
1!
1,
b1100001 7
#995
0!
0,
#1000
1!
1,
b1100010 7
#1005
0!
0,
#1010
1!
1,
b1100011 7
#1015
0!
0,
#1020
1!
1,
b1100100 7
#1025
0!
0,
#1030
1!
1,
b1100101 7
#1035
0!
0,
#1040
1!
1,
b1100110 7
#1045
0!
0,
#1050
1!
1,
b1100111 7
#1055
0!
0,
#1060
1!
1,
b1101000 7
#1065
0!
0,
#1070
1!
1,
b1101001 7
#1075
0!
0,
#1080
1!
1,
b1101010 7
#1085
0!
0,
#1090
1!
1,
b1101011 7
#1095
0!
0,
#1100
1!
1,
b1101100 7
#1105
0!
0,
#1110
1!
1,
b1101101 7
#1115
0!
0,
#1120
1!
1,
b1101110 7
#1125
0!
0,
#1130
1!
1,
b1101111 7
#1135
0!
0,
#1140
1!
1,
b1110000 7
#1145
0!
0,
#1150
1!
1,
b1110001 7
#1155
0!
0,
#1160
1!
1,
b1110010 7
#1165
0!
0,
#1170
1!
1,
b1110011 7
#1175
0!
0,
#1180
1!
1,
b1110100 7
#1185
0!
0,
#1190
1!
1,
b1110101 7
#1195
0!
0,
#1200
1!
1,
b1110110 7
#1205
0!
0,
#1210
1!
1,
b1110111 7
#1215
0!
0,
#1220
1!
1,
b1111000 7
#1225
0!
0,
#1230
1!
1,
b1111001 7
#1235
0!
0,
#1240
1!
1,
b1111010 7
#1245
0!
0,
#1250
1!
1,
b1111011 7
#1255
0!
0,
#1260
1!
1,
b1111100 7
#1265
0!
0,
#1270
1!
1,
b1111101 7
#1275
0!
0,
#1280
1!
1,
b1111110 7
#1285
0!
0,
#1290
1!
1,
b1111111 7
#1295
0!
0,
#1300
1!
1,
b10000000 7
#1305
0!
0,
#1310
1!
1,
b10000001 7
#1315
0!
0,
#1320
1!
1,
b10000010 7
#1325
0!
0,
#1330
1!
1,
b10000011 7
#1335
0!
0,
#1340
1!
1,
b10000100 7
#1345
0!
0,
#1350
1!
1,
b10000101 7
#1355
0!
0,
#1360
1!
1,
b10000110 7
#1365
0!
0,
#1370
1!
1,
b10000111 7
#1375
0!
0,
#1380
1!
1,
b10001000 7
#1385
0!
0,
#1390
1!
1,
b10001001 7
#1395
0!
0,
#1400
1!
1,
b10001010 7
#1405
0!
0,
#1410
1!
1,
b10001011 7
#1415
0!
0,
#1420
1!
1,
b10001100 7
#1425
0!
0,
#1430
1!
1,
b10001101 7
#1435
0!
0,
#1440
1!
1,
b10001110 7
#1445
0!
0,
#1450
1!
1,
b10001111 7
#1455
0!
0,
#1460
1!
1,
b10010000 7
#1465
0!
0,
#1470
1!
1,
b10010001 7
#1475
0!
0,
#1480
1!
1,
b10010010 7
#1485
0!
0,
#1490
1!
1,
b10010011 7
#1495
0!
0,
#1500
1!
1,
b10010100 7
#1505
0!
0,
#1510
1!
1,
b10010101 7
#1515
0!
0,
#1520
1!
1,
b10010110 7
#1525
0!
0,
#1530
1!
1,
b10010111 7
#1535
0!
0,
#1540
1!
1,
b10011000 7
#1545
0!
0,
#1550
1!
1,
b10011001 7
#1555
0!
0,
#1560
1!
1,
b10011010 7
#1565
0!
0,
#1570
1!
1,
b10011011 7
#1575
0!
0,
#1580
1!
1,
b10011100 7
#1585
0!
0,
#1590
1!
1,
b10011101 7
#1595
0!
0,
#1600
1!
1,
b10011110 7
#1605
0!
0,
#1610
1!
1,
b10011111 7
#1615
0!
0,
#1620
1!
1,
b10100000 7
#1625
0!
0,
#1630
1!
1,
b10100001 7
#1635
0!
0,
#1640
1!
1,
b10100010 7
#1645
0!
0,
#1650
1!
1,
b10100011 7
#1655
0!
0,
#1660
1!
1,
b10100100 7
#1665
0!
0,
#1670
1!
1,
b10100101 7
#1675
0!
0,
#1680
1!
1,
b10100110 7
#1685
0!
0,
#1690
1!
1,
b10100111 7
#1695
0!
0,
#1700
1!
1,
b10101000 7
#1705
0!
0,
#1710
1!
1,
b10101001 7
#1715
0!
0,
#1720
1!
1,
b10101010 7
#1725
0!
0,
#1730
1!
1,
b10101011 7
#1735
0!
0,
#1740
1!
1,
b10101100 7
#1745
0!
0,
#1750
1!
1,
b10101101 7
#1755
0!
0,
#1760
1!
1,
b10101110 7
#1765
0!
0,
#1770
1!
1,
b10101111 7
#1775
0!
0,
#1780
1!
1,
b10110000 7
#1785
0!
0,
#1790
1!
1,
b10110001 7
#1795
0!
0,
#1800
1!
1,
b10110010 7
#1805
0!
0,
#1810
1!
1,
b10110011 7
#1815
0!
0,
#1820
1!
1,
b10110100 7
#1825
0!
0,
#1830
1!
1,
b10110101 7
#1835
0!
0,
#1840
1!
1,
b10110110 7
#1845
0!
0,
#1850
1!
1,
b10110111 7
#1855
0!
0,
#1860
1!
1,
b10111000 7
#1865
0!
0,
#1870
1!
1,
b10111001 7
#1875
0!
0,
#1880
1!
1,
b10111010 7
#1885
0!
0,
#1890
1!
1,
b10111011 7
#1895
0!
0,
#1900
1!
1,
b10111100 7
#1905
0!
0,
#1910
1!
1,
b10111101 7
#1915
0!
0,
#1920
1!
1,
b10111110 7
#1925
0!
0,
#1930
1!
1,
b10111111 7
#1935
0!
0,
#1940
1!
1,
b11000000 7
#1945
0!
0,
#1950
1!
1,
b11000001 7
#1955
0!
0,
#1960
1!
1,
b11000010 7
#1965
0!
0,
#1970
1!
1,
b11000011 7
#1975
0!
0,
#1980
1!
1,
b11000100 7
#1985
0!
0,
#1990
1!
1,
b11000101 7
#1995
0!
0,
#2000
1!
1,
b11000110 7
#2005
0!
0,
#2010
1!
1,
b11000111 7
#2015
0!
0,
#2020
1!
1,
b11001000 7
#2025
0!
0,
#2030
1!
1,
b11001001 7
#2035
0!
0,
#2040
1!
1,
b11001010 7
#2045
0!
0,
#2050
1!
1,
b11001011 7
#2055
0!
0,
#2060
1!
1,
b11001100 7
#2065
0!
0,
#2070
1!
1,
b11001101 7
#2075
0!
0,
#2080
1!
1,
b11001110 7
#2085
0!
0,
#2090
1!
1,
b11001111 7
#2095
0!
0,
#2100
1!
1,
b11010000 7
#2105
0!
0,
#2110
1!
1,
b11010001 7
#2115
0!
0,
#2120
1!
1,
b11010010 7
#2125
0!
0,
#2130
1!
1,
b11010011 7
#2135
0!
0,
#2140
1!
1,
b11010100 7
#2145
0!
0,
#2150
1!
1,
b11010101 7
#2155
0!
0,
#2160
1!
1,
b11010110 7
#2165
0!
0,
#2170
1!
1,
b11010111 7
#2175
0!
0,
#2180
1!
1,
b11011000 7
#2185
0!
0,
#2190
1!
1,
b11011001 7
#2195
0!
0,
#2200
1!
1,
b11011010 7
#2205
0!
0,
#2210
1!
1,
b11011011 7
#2215
0!
0,
#2220
1!
1,
b11011100 7
#2225
0!
0,
#2230
1!
1,
b11011101 7
#2235
0!
0,
#2240
1!
1,
b11011110 7
#2245
0!
0,
#2250
1!
1,
b11011111 7
#2255
0!
0,
#2260
1!
1,
b11100000 7
#2265
0!
0,
#2270
1!
1,
b11100001 7
#2275
0!
0,
#2280
1!
1,
b11100010 7
#2285
0!
0,
#2290
1!
1,
b11100011 7
#2295
0!
0,
#2300
1!
1,
b11100100 7
#2305
0!
0,
#2310
1!
1,
b11100101 7
#2315
0!
0,
#2320
1!
1,
b11100110 7
#2325
0!
0,
#2330
1!
1,
b11100111 7
#2335
0!
0,
#2340
1!
1,
b11101000 7
#2345
0!
0,
#2350
1!
1,
b11101001 7
#2355
0!
0,
#2360
1!
1,
b11101010 7
#2365
0!
0,
#2370
1!
1,
b11101011 7
#2375
0!
0,
#2380
1!
1,
b11101100 7
#2385
0!
0,
#2390
1!
1,
b11101101 7
#2395
0!
0,
#2400
1!
1,
b11101110 7
#2405
0!
0,
#2410
1!
1,
b11101111 7
#2415
0!
0,
#2420
1!
1,
b11110000 7
#2425
0!
0,
#2430
1!
1,
b11110001 7
#2435
0!
0,
#2440
1!
1,
b11110010 7
#2445
0!
0,
#2450
1!
1,
b11110011 7
#2455
0!
0,
#2460
1!
1,
b11110100 7
#2465
0!
0,
#2470
1!
1,
b11110101 7
#2475
0!
0,
#2480
1!
1,
b11110110 7
#2485
0!
0,
#2490
1!
1,
b11110111 7
#2495
0!
0,
#2500
1!
1,
b11111000 7
#2505
0!
0,
#2510
1!
1,
b11111001 7
#2515
0!
0,
#2520
1!
1,
b11111010 7
#2525
0!
0,
#2530
1!
1,
b11111011 7
#2535
0!
0,
#2540
1!
1,
b11111100 7
#2545
0!
0,
#2550
1!
1,
b11111101 7
#2555
0!
0,
#2560
1!
1,
b11111110 7
#2565
0!
0,
#2570
1!
1,
b11111111 7
#2575
0!
0,
#2580
1!
1,
b100000000 7
#2585
0!
0,
#2590
1!
1,
b100000001 7
#2595
0!
0,
#2600
1!
1,
b100000010 7
#2605
0!
0,
#2610
1!
1,
b100000011 7
#2615
0!
0,
#2620
1!
1,
b100000100 7
#2625
0!
0,
#2630
1!
1,
b100000101 7
#2635
0!
0,
#2640
1!
1,
b100000110 7
#2645
0!
0,
#2650
1!
1,
b100000111 7
#2655
0!
0,
#2660
1!
1,
b100001000 7
#2665
0!
0,
#2670
1!
1,
b100001001 7
#2675
0!
0,
#2680
1!
1,
b100001010 7
#2685
0!
0,
#2690
1!
1,
b100001011 7
#2695
0!
0,
#2700
1!
1,
b100001100 7
#2705
0!
0,
#2710
1!
1,
b100001101 7
#2715
0!
0,
#2720
1!
1,
b100001110 7
#2725
0!
0,
#2730
1!
1,
b100001111 7
#2735
0!
0,
#2740
1!
1,
b100010000 7
#2745
0!
0,
#2750
1!
1,
b100010001 7
#2755
0!
0,
#2760
1!
1,
b100010010 7
#2765
0!
0,
#2770
1!
1,
b100010011 7
#2775
0!
0,
#2780
1!
1,
b100010100 7
#2785
0!
0,
#2790
1!
1,
b100010101 7
#2795
0!
0,
#2800
1!
1,
b100010110 7
#2805
0!
0,
#2810
1!
1,
b100010111 7
#2815
0!
0,
#2820
1!
1,
b100011000 7
#2825
0!
0,
#2830
1!
1,
b100011001 7
#2835
0!
0,
#2840
1!
1,
b100011010 7
#2845
0!
0,
#2850
1!
1,
b100011011 7
#2855
0!
0,
#2860
1!
1,
b100011100 7
#2865
0!
0,
#2870
1!
1,
b100011101 7
#2875
0!
0,
#2880
1!
1,
b100011110 7
#2885
0!
0,
#2890
1!
1,
b100011111 7
#2895
0!
0,
#2900
1!
1,
b100100000 7
#2905
0!
0,
#2910
1!
1,
b100100001 7
#2915
0!
0,
#2920
1!
1,
b100100010 7
#2925
0!
0,
#2930
1!
1,
b100100011 7
#2935
0!
0,
#2940
1!
1,
b100100100 7
#2945
0!
0,
#2950
1!
1,
b100100101 7
#2955
0!
0,
#2960
1!
1,
b100100110 7
#2965
0!
0,
#2970
1!
1,
b100100111 7
#2975
0!
0,
#2980
1!
1,
b100101000 7
#2985
0!
0,
#2990
1!
1,
b100101001 7
#2995
0!
0,
#3000
1!
1,
b100101010 7
#3005
0!
0,
#3010
1!
1,
b100101011 7
#3015
0!
0,
#3020
1!
1,
b100101100 7
#3025
0!
0,
#3030
1!
1,
b100101101 7
#3035
0!
0,
#3040
1!
1,
b100101110 7
#3045
0!
0,
#3050
1!
1,
b100101111 7
#3055
0!
0,
#3060
1!
1,
b100110000 7
#3065
0!
0,
#3070
1!
1,
b100110001 7
#3075
0!
0,
#3080
1!
1,
b100110010 7
#3085
0!
0,
#3090
1!
1,
b100110011 7
#3095
0!
0,
#3100
1!
1,
b100110100 7
#3105
0!
0,
#3110
1!
1,
b100110101 7
#3115
0!
0,
#3120
1!
1,
b100110110 7
#3125
0!
0,
#3130
1!
1,
b100110111 7
#3135
0!
0,
#3140
1!
1,
b100111000 7
#3145
0!
0,
#3150
1!
1,
b100111001 7
#3155
0!
0,
#3160
1!
1,
b100111010 7
#3165
0!
0,
#3170
1!
1,
b100111011 7
#3175
0!
0,
#3180
1!
1,
b100111100 7
#3185
0!
0,
#3190
1!
1,
b100111101 7
#3195
0!
0,
#3200
1!
1,
b100111110 7
#3205
0!
0,
#3210
1!
1,
b100111111 7
#3215
0!
0,
#3220
1!
1,
b101000000 7
#3225
0!
0,
#3230
1!
1,
b101000001 7
#3235
0!
0,
#3240
1!
1,
b101000010 7
#3245
0!
0,
#3250
1!
1,
b101000011 7
#3255
0!
0,
#3260
1!
1,
b101000100 7
#3265
0!
0,
#3270
1!
1,
b101000101 7
#3275
0!
0,
#3280
1!
1,
b101000110 7
#3285
0!
0,
#3290
1!
1,
b101000111 7
#3295
0!
0,
#3300
1!
1,
b101001000 7
#3305
0!
0,
#3310
1!
1,
b101001001 7
#3315
0!
0,
#3320
1!
1,
b101001010 7
#3325
0!
0,
#3330
1!
1,
b101001011 7
#3335
0!
0,
#3340
1!
1,
b101001100 7
#3345
0!
0,
#3350
1!
1,
b101001101 7
#3355
0!
0,
#3360
1!
1,
b101001110 7
#3365
0!
0,
#3370
1!
1,
b101001111 7
#3375
0!
0,
#3380
1!
1,
b101010000 7
#3385
0!
0,
#3390
1!
1,
b101010001 7
#3395
0!
0,
#3400
1!
1,
b101010010 7
#3405
0!
0,
#3410
1!
1,
b101010011 7
#3415
0!
0,
#3420
1!
1,
b101010100 7
#3425
0!
0,
#3430
1!
1,
b101010101 7
#3435
0!
0,
#3440
1!
1,
b101010110 7
#3445
0!
0,
#3450
1!
1,
b101010111 7
#3455
0!
0,
#3460
1!
1,
b101011000 7
#3465
0!
0,
#3470
1!
1,
b101011001 7
#3475
0!
0,
#3480
1!
1,
b101011010 7
#3485
0!
0,
#3490
1!
1,
b101011011 7
#3495
0!
0,
#3500
1!
1,
b101011100 7
#3505
0!
0,
#3510
1!
1,
b101011101 7
#3515
0!
0,
#3520
1!
1,
b101011110 7
#3525
0!
0,
#3530
1!
1,
b101011111 7
#3535
0!
0,
#3540
1!
1,
b101100000 7
#3545
0!
0,
#3550
1!
1,
b101100001 7
#3555
0!
0,
#3560
1!
1,
b101100010 7
#3565
0!
0,
#3570
1!
1,
b101100011 7
#3575
0!
0,
#3580
1!
1,
b101100100 7
#3585
0!
0,
#3590
1!
1,
b101100101 7
#3595
0!
0,
#3600
1!
1,
b101100110 7
#3605
0!
0,
#3610
1!
1,
b101100111 7
#3615
0!
0,
#3620
1!
1,
b101101000 7
#3625
0!
0,
#3630
1!
1,
b101101001 7
#3635
0!
0,
#3640
1!
1,
b101101010 7
#3645
0!
0,
#3650
1!
1,
b101101011 7
#3655
0!
0,
#3660
1!
1,
b101101100 7
#3665
0!
0,
#3670
1!
1,
b101101101 7
#3675
0!
0,
#3680
1!
1,
b101101110 7
#3685
0!
0,
#3690
1!
1,
b101101111 7
#3695
0!
0,
#3700
1!
1,
b101110000 7
#3705
0!
0,
#3710
1!
1,
b101110001 7
#3715
0!
0,
#3720
1!
1,
b101110010 7
#3725
0!
0,
#3730
1!
1,
b101110011 7
#3735
0!
0,
#3740
1!
1,
b101110100 7
#3745
0!
0,
#3750
1!
1,
b101110101 7
#3755
0!
0,
#3760
1!
1,
b101110110 7
#3765
0!
0,
#3770
1!
1,
b101110111 7
#3775
0!
0,
#3780
1!
1,
b101111000 7
#3785
0!
0,
#3790
1!
1,
b101111001 7
#3795
0!
0,
#3800
1!
1,
b101111010 7
#3805
0!
0,
#3810
1!
1,
b101111011 7
#3815
0!
0,
#3820
1!
1,
b101111100 7
#3825
0!
0,
#3830
1!
1,
b101111101 7
#3835
0!
0,
#3840
1!
1,
b101111110 7
#3845
0!
0,
#3850
1!
1,
b101111111 7
#3855
0!
0,
#3860
1!
1,
b110000000 7
#3865
0!
0,
#3870
1!
1,
b110000001 7
#3875
0!
0,
#3880
1!
1,
b110000010 7
#3885
0!
0,
#3890
1!
1,
b110000011 7
#3895
0!
0,
#3900
1!
1,
b110000100 7
#3905
0!
0,
#3910
1!
1,
b110000101 7
#3915
0!
0,
#3920
1!
1,
b110000110 7
#3925
0!
0,
#3930
1!
1,
b110000111 7
#3935
0!
0,
#3940
1!
1,
b110001000 7
#3945
0!
0,
#3950
1!
1,
b110001001 7
#3955
0!
0,
#3960
1!
1,
b110001010 7
#3965
0!
0,
#3970
1!
1,
b110001011 7
#3975
0!
0,
#3980
1!
1,
b110001100 7
#3985
0!
0,
#3990
1!
1,
b110001101 7
#3995
0!
0,
#4000
1!
1,
b110001110 7
#4005
0!
0,
#4010
1!
1,
b110001111 7
#4015
0!
0,
#4020
1!
1,
b110010000 7
#4025
0!
0,
#4030
1!
1,
b110010001 7
#4035
0!
0,
#4040
1!
1,
b110010010 7
#4045
0!
0,
#4050
1!
1,
b110010011 7
#4055
0!
0,
#4060
1!
1,
b110010100 7
#4065
0!
0,
#4070
1!
1,
b110010101 7
#4075
0!
0,
#4080
1!
1,
b110010110 7
#4085
0!
0,
#4090
1!
1,
b110010111 7
#4095
0!
0,
#4100
1!
1,
b110011000 7
#4105
0!
0,
#4110
1!
1,
b110011001 7
#4115
0!
0,
#4120
1!
1,
b110011010 7
#4125
0!
0,
#4130
1!
1,
b110011011 7
#4135
0!
0,
#4140
1!
1,
b110011100 7
#4145
0!
0,
#4150
1!
1,
b110011101 7
#4155
0!
0,
#4160
1!
1,
b110011110 7
#4165
0!
0,
#4170
1!
1,
b110011111 7
#4175
0!
0,
#4180
1!
1,
b110100000 7
#4185
0!
0,
#4190
1!
1,
b110100001 7
#4195
0!
0,
#4200
1!
1,
b110100010 7
#4205
0!
0,
#4210
1!
1,
b110100011 7
#4215
0!
0,
#4220
1!
1,
b110100100 7
#4225
0!
0,
#4230
1!
1,
b110100101 7
#4235
0!
0,
#4240
1!
1,
b110100110 7
#4245
0!
0,
#4250
1!
1,
b110100111 7
#4255
0!
0,
#4260
1!
1,
b110101000 7
#4265
0!
0,
#4270
1!
1,
b110101001 7
#4275
0!
0,
#4280
1!
1,
b110101010 7
#4285
0!
0,
#4290
1!
1,
b110101011 7
#4295
0!
0,
#4300
1!
1,
b110101100 7
#4305
0!
0,
#4310
1!
1,
b110101101 7
#4315
0!
0,
#4320
1!
1,
b110101110 7
#4325
0!
0,
#4330
1!
1,
b110101111 7
#4335
0!
0,
#4340
1!
1,
b110110000 7
#4345
0!
0,
#4350
1!
1,
b110110001 7
#4355
0!
0,
#4360
1!
1,
b110110010 7
#4365
0!
0,
#4370
1!
1,
b110110011 7
#4375
0!
0,
#4380
1!
1,
b110110100 7
#4385
0!
0,
#4390
1!
1,
b110110101 7
#4395
0!
0,
#4400
1!
1,
b110110110 7
#4405
0!
0,
#4410
1!
1,
b110110111 7
#4415
0!
0,
#4420
1!
1,
b110111000 7
#4425
0!
0,
#4430
1!
1,
b110111001 7
#4435
0!
0,
#4440
1!
1,
b110111010 7
#4445
0!
0,
#4450
1!
1,
b110111011 7
#4455
0!
0,
#4460
1!
1,
b110111100 7
#4465
0!
0,
#4470
1!
1,
b110111101 7
#4475
0!
0,
#4480
1!
1,
b110111110 7
#4485
0!
0,
#4490
1!
1,
b110111111 7
#4495
0!
0,
#4500
1!
1,
b111000000 7
#4505
0!
0,
#4510
1!
1,
b111000001 7
#4515
0!
0,
#4520
1!
1,
b111000010 7
#4525
0!
0,
#4530
1!
1,
b111000011 7
#4535
0!
0,
#4540
1!
1,
b111000100 7
#4545
0!
0,
#4550
1!
1,
b111000101 7
#4555
0!
0,
#4560
1!
1,
b111000110 7
#4565
0!
0,
#4570
1!
1,
b111000111 7
#4575
0!
0,
#4580
1!
1,
b111001000 7
#4585
0!
0,
#4590
1!
1,
b111001001 7
#4595
0!
0,
#4600
1!
1,
b111001010 7
#4605
0!
0,
#4610
1!
1,
b111001011 7
#4615
0!
0,
#4620
1!
1,
b111001100 7
#4625
0!
0,
#4630
1!
1,
b111001101 7
#4635
0!
0,
#4640
1!
1,
b111001110 7
#4645
0!
0,
#4650
1!
1,
b111001111 7
#4655
0!
0,
#4660
1!
1,
b111010000 7
#4665
0!
0,
#4670
1!
1,
b111010001 7
#4675
0!
0,
#4680
1!
1,
b111010010 7
#4685
0!
0,
#4690
1!
1,
b111010011 7
#4695
0!
0,
#4700
1!
1,
b111010100 7
#4705
0!
0,
#4710
1!
1,
b111010101 7
#4715
0!
0,
#4720
1!
1,
b111010110 7
#4725
0!
0,
#4730
1!
1,
b111010111 7
#4735
0!
0,
#4740
1!
1,
b111011000 7
#4745
0!
0,
#4750
1!
1,
b111011001 7
#4755
0!
0,
#4760
1!
1,
b111011010 7
#4765
0!
0,
#4770
1!
1,
b111011011 7
#4775
0!
0,
#4780
1!
1,
b111011100 7
#4785
0!
0,
#4790
1!
1,
b111011101 7
#4795
0!
0,
#4800
1!
1,
b111011110 7
#4805
0!
0,
#4810
1!
1,
b111011111 7
#4815
0!
0,
#4820
1!
1,
b111100000 7
#4825
0!
0,
#4830
1!
1,
b111100001 7
#4835
0!
0,
#4840
1!
1,
b111100010 7
#4845
0!
0,
#4850
1!
1,
b111100011 7
#4855
0!
0,
#4860
1!
1,
b111100100 7
#4865
0!
0,
#4870
1!
1,
b111100101 7
#4875
0!
0,
#4880
1!
1,
b111100110 7
#4885
0!
0,
#4890
1!
1,
b111100111 7
#4895
0!
0,
#4900
1!
1,
b111101000 7
#4905
0!
0,
#4910
1!
1,
b111101001 7
#4915
0!
0,
#4920
1!
1,
b111101010 7
#4925
0!
0,
#4930
1!
1,
b111101011 7
#4935
0!
0,
#4940
1!
1,
b111101100 7
#4945
0!
0,
#4950
1!
1,
b111101101 7
#4955
0!
0,
#4960
1!
1,
b111101110 7
#4965
0!
0,
#4970
1!
1,
b111101111 7
#4975
0!
0,
#4980
1!
1,
b111110000 7
#4985
0!
0,
#4990
1!
1,
b111110001 7
#4995
0!
0,
#5000
1!
1,
b111110010 7
